…
**TODO** _Calculer la jointure `com_pop` des deux jeux de données sur l'attribut `codgeo`, en calculant la densité de population et l'évolution de 2008 à 2013 en %._

---

```raw
com_pop
Simple feature collection with 816 features and 24 fields
Geometry type: MULTIPOLYGON
Dimension:     XY
Bounding box:  xmin: 696994 ymin: 6859808 xmax: 790281 ymax: 6997000
Projected CRS: RGF93 / Lambert-93
# A tibble: 816 x 25
   codgeo chef_lieu tncc  dct   dar   dau99 dau10 typo_au2010 deu99 duu99 duu10 z90   z10   epc      bv    int_reg reg   dep                    geometry libgeo
 * <chr>  <chr>     <chr> <chr> <chr> <chr> <chr> <chr>       <chr> <chr> <chr> <chr> <chr> <chr>    <chr> <chr>   <chr> <chr>        <MULTIPOLYGON [m]> <chr> 
 1 02001  0         1     0203  022   248   998   300         1A    ""    ""    2232  2202  2402006~ 02173 NE      22    02    (((712717 6942795, 71199~ Abbéc~ 
 2 02002  0         1     0218  022   999   998   300         1A    ""    ""    2232  2205  2402004~ 02738 NE      22    02    (((728639 6953410, 72807~ Achery 
 3 02003  0         1     0217  024   117   127   112         1A    ""    ""    2207  2206  2402004~ 02722 NE      22    02    (((731200.1 6913598, 730~ Acy    
 4 02004  0         1     0211  022   000   000   400         9Z    ""    ""    2242  2204  2402004~ 02468 NE      22    02    (((768060 6955198, 76720~ Agnic~ 
 5 02005  0         1     0206  022   029   029   112         1A    ""    ""    2242  2204  2402005~ 51454 NE      22    02    (((769828 6920184, 76786~ Aguil~ 
 6 02006  0         1     0207  025   000   998   300         9Z    ""    ""    2241  2205  2402004~ 02095 NE      22    02    (((736934 6979095, 73622~ Aison~ 
 7 02007  0         1     0206  022   999   997   120         1A    ""    ""    2242  2204  2402005~ 51454 NE      22    02    (((760905 6931148, 75915~ Aizel~ 
 8 02008  0         1     0205  024   999   997   120         1A    ""    ""    2207  2206  2402005~ 02722 NE      22    02    (((736093 6924183, 73584~ Aizy-~ 
 9 02009  0         1     0212  023   074   074   112         1A    ""    ""    2231  2205  2000404~ 02691 NE      22    02    (((726606 6961580, 72541~ Alain~ 
10 02010  0         1     0205  024   999   127   112         1A    ""    ""    2207  2206  2402005~ 02018 NE      22    02    (((733662 6928092, 73222~ Allem~ 
# i 806 more rows
# i 5 more variables: pop13 <dbl>, pop08 <dbl>, surf <dbl>, dpop_habkm2 <dbl>, evol_pop_pcent <dbl>
# i Use `print(n = ...)` to see more rows
```
…
